<?xml version="1.0" encoding="utf-8"?>
<!-- Generator: Adobe Illustrator 23.0.2, SVG Export Plug-In . SVG Version: 6.00 Build 0)  -->
<svg version="1.1" id="레이어_1" xmlns="http://www.w3.org/2000/svg" xmlns:xlink="http://www.w3.org/1999/xlink" x="0px"
	 y="0px" viewBox="0 0 453.8 916" style="enable-background:new 0 0 453.8 916;" xml:space="preserve">
<style type="text/css">
	.st0{display:none;}
	.st1{display:inline;fill:#FFFFFF;}
	.st2{fill:#FFFFFF;}
</style>
<g id="Capa_1" class="st0">
	<rect class="st1" width="512" height="66.4"/>
	<rect y="189.6" class="st1" width="512" height="66.4"/>
	<rect y="379.3" class="st1" width="265.5" height="66.4"/>
</g>
<polygon class="st2" points="453.8,40.3 413.9,0 226.9,188.7 39.9,0 0,40.3 187,229 0,417.7 39.9,458 226.9,269.3 413.9,458 
	453.8,417.7 266.8,229 "/>
<polygon points="453.8,498.3 413.9,458 226.9,646.7 39.9,458 0,498.3 187,687 0,875.7 39.9,916 226.9,727.3 413.9,916 453.8,875.7 
	266.8,687 "/>
</svg>
