<?xml version="1.0" encoding="utf-8"?>
<!-- Generator: Adobe Illustrator 23.0.2, SVG Export Plug-In . SVG Version: 6.00 Build 0)  -->
<svg version="1.1" id="레이어_1" xmlns="http://www.w3.org/2000/svg" xmlns:xlink="http://www.w3.org/1999/xlink" x="0px"
	 y="0px" viewBox="0 0 88 18" style="enable-background:new 0 0 88 18;" xml:space="preserve">
<style type="text/css">
	.st0{fill:#0B9BAC;}
	.st1{fill:url(#SVGID_1_);}
	.st2{fill:url(#SVGID_2_);}
	.st3{fill:url(#SVGID_3_);}
	.st4{fill:url(#SVGID_4_);}
	.st5{fill:url(#SVGID_5_);}
	.st6{fill:url(#SVGID_6_);}
	.st7{fill:#FFFFFF;}
</style>
<g>
	<polygon class="st0" points="10.4,8.3 10.4,8.3 10.4,8.3 10.4,8.3 10.4,8.3 	"/>
	<polygon class="st0" points="10.4,8.3 10.4,8.3 10.4,8.3 	"/>
	<polygon class="st0" points="10.4,8.3 10.4,8.3 10.4,8.3 	"/>
	<polygon class="st0" points="10.4,8.3 10.4,8.3 10.4,8.3 	"/>
	<rect x="10.4" y="8.3" transform="matrix(0.8412 -0.5408 0.5408 0.8412 -2.8588 6.9396)" class="st0" width="0" height="0"/>
	<polygon class="st0" points="10.4,8.3 10.4,8.3 10.4,8.3 	"/>
	<linearGradient id="SVGID_1_" gradientUnits="userSpaceOnUse" x1="15.2571" y1="13.4324" x2="6.5668" y2="11.8633">
		<stop  offset="2.776170e-02" style="stop-color:#674B9B"/>
		<stop  offset="0.1343" style="stop-color:#6F4A9A"/>
		<stop  offset="0.3011" style="stop-color:#854898"/>
		<stop  offset="0.506" style="stop-color:#AA4494"/>
		<stop  offset="0.5734" style="stop-color:#B74292"/>
		<stop  offset="1" style="stop-color:#E50012"/>
	</linearGradient>
	<polygon class="st1" points="9.7,8.5 5.3,14.6 9.7,12.2 16.3,17.6 	"/>
	<linearGradient id="SVGID_2_" gradientUnits="userSpaceOnUse" x1="14.6479" y1="7.205" x2="10.0256" y2="3.8154">
		<stop  offset="0.1041" style="stop-color:#52C2F0"/>
		<stop  offset="0.4939" style="stop-color:#92D1A8"/>
		<stop  offset="0.8362" style="stop-color:#C5DC6E"/>
		<stop  offset="1" style="stop-color:#D9E158"/>
	</linearGradient>
	<polygon class="st2" points="12.7,4.9 10.5,0.4 10.5,7.9 17.6,5.6 	"/>
	<linearGradient id="SVGID_3_" gradientUnits="userSpaceOnUse" x1="14.0371" y1="5.9394" x2="14.0371" y2="14.3401">
		<stop  offset="0" style="stop-color:#52C2F0"/>
		<stop  offset="0.5" style="stop-color:#5A6BB1"/>
		<stop  offset="1" style="stop-color:#7B559F"/>
	</linearGradient>
	<polygon class="st3" points="17.6,5.6 10.5,7.9 15.6,15.1 14.1,9.1 	"/>
	<linearGradient id="SVGID_4_" gradientUnits="userSpaceOnUse" x1="4.5172" y1="11.1281" x2="6.3047" y2="6.8137">
		<stop  offset="0" style="stop-color:#DE3D8E"/>
		<stop  offset="0.371" style="stop-color:#E52380"/>
		<stop  offset="0.7343" style="stop-color:#F07637"/>
		<stop  offset="1" style="stop-color:#F8B600"/>
	</linearGradient>
	<polygon class="st4" points="2.5,6.2 6.1,9.6 5.3,14.6 9.7,8.5 	"/>
	<linearGradient id="SVGID_5_" gradientUnits="userSpaceOnUse" x1="3.6254" y1="8.9498" x2="10.185" y2="2.2877">
		<stop  offset="0" style="stop-color:#E95513"/>
		<stop  offset="0.3407" style="stop-color:#F5A823"/>
		<stop  offset="0.5" style="stop-color:#FBD12B"/>
		<stop  offset="1" style="stop-color:#8DC21F"/>
	</linearGradient>
	<polygon class="st5" points="7.4,4.6 2.8,5.3 9.5,7.5 9.5,7.5 9.5,7.5 9.5,0.5 	"/>
	<linearGradient id="SVGID_6_" gradientUnits="userSpaceOnUse" x1="11.4716" y1="17.0162" x2="0.4018" y2="10.8882">
		<stop  offset="2.776170e-02" style="stop-color:#674B9B"/>
		<stop  offset="9.451672e-02" style="stop-color:#774999"/>
		<stop  offset="0.2621" style="stop-color:#9A4595"/>
		<stop  offset="0.3997" style="stop-color:#AF4393"/>
		<stop  offset="0.4892" style="stop-color:#B74292"/>
		<stop  offset="1" style="stop-color:#E50012"/>
	</linearGradient>
	<path class="st6" d="M9.9,17.1c1.1,0,2.2-0.2,3.2-0.6c-1.1,0.5-2.4,0.8-3.7,0.8c-4.7,0-8.6-3.8-8.6-8.6c0-0.1,0-0.2,0-0.4
		C1.1,13.3,5,17.1,9.9,17.1z"/>
</g>
<g>
	<path class="st7" d="M28.7,9.1C28.5,9,28.4,9,28.3,9c-0.1,0-0.2,0-0.4-0.1c-0.7-0.1-1.2-0.3-1.5-0.4c-0.6-0.3-0.6-0.6-0.6-0.7
		c0-0.3,0.1-0.5,0.4-0.8c0.3-0.2,0.6-0.3,1.1-0.3c0.4,0,0.8,0.1,1.1,0.3c0.3,0.2,0.5,0.5,0.6,1l0,0.2h1.9l0-0.3
		c-0.1-0.9-0.5-1.6-1.2-2.1c-0.6-0.5-1.4-0.7-2.2-0.7c-0.9,0-1.8,0.2-2.4,0.7c-0.7,0.5-1.1,1.2-1.1,1.9c0,0.4,0.1,0.7,0.3,1
		c0.2,0.3,0.5,0.6,0.8,0.8c0.3,0.2,0.6,0.3,0.9,0.4c0.2,0.1,0.5,0.1,1,0.2c0.2,0,0.4,0.1,0.5,0.1c0.2,0,0.3,0.1,0.5,0.1
		c0.4,0.1,0.7,0.3,0.9,0.5c0.2,0.2,0.4,0.4,0.4,0.7c0,0.3-0.2,0.6-0.5,0.9c-0.4,0.3-0.8,0.4-1.3,0.4c-0.5,0-0.9-0.1-1.2-0.4
		c-0.3-0.3-0.5-0.6-0.6-1.1l0-0.2h-1.9l0,0.3c0.1,0.9,0.6,1.7,1.3,2.2c0.7,0.5,1.5,0.8,2.5,0.8c1,0,1.8-0.3,2.5-0.8
		c0.8-0.6,1.2-1.2,1.2-2.1c0-0.6-0.2-1.2-0.7-1.6C29.9,9.6,29.3,9.3,28.7,9.1z"/>
	<polygon class="st7" points="38.8,5.2 31.8,5.2 31.8,6.8 34.4,6.8 34.4,14.3 36.2,14.3 36.2,6.8 38.8,6.8 	"/>
	<path class="st7" d="M42.4,5.1l-3.8,9.2h1.8l1-2.4h2.9L43,10.4l-0.9,0.5c0,0-0.1,0-0.1,0c0,0,0,0,0-0.1l0.2-1l-0.8-0.7
		c0,0,0-0.1,0-0.1c0,0,0,0,0,0c0,0,0,0,0,0l1-0.2l0.4-1c0,0,0,0,0,0c0,0,0,0,0,0c0,0,0.1,0,0.1,0l0.5,0.9l1,0.1c0,0,0.1,0,0.1,0.1
		c0,0,0,0.1,0,0.1l-0.7,0.7l1.1,3l0.6,1.6h1.8l-3.8-9.2H42.4z"/>
	<path class="st7" d="M53.5,11.1c0.6-0.2,1.1-0.5,1.5-0.9c0.5-0.5,0.7-1.2,0.7-1.9c0-0.6-0.1-1.1-0.4-1.5c-0.3-0.4-0.6-0.8-1.1-1
		c-0.4-0.2-0.8-0.3-1.3-0.4c-0.3,0-0.7-0.1-1.3-0.1l-2.6,0v9.1h1.7v-3.3h0.8l2.4,3.3H56L53.5,11.1z M52.4,9.6c-0.2,0-0.5,0-1,0h-0.7
		V6.9h1l0.3,0c0.4,0,0.6,0,0.8,0c0.3,0,0.5,0.1,0.7,0.2c0.2,0.1,0.4,0.3,0.5,0.5c0.1,0.2,0.2,0.4,0.2,0.6c0,0.3-0.1,0.5-0.2,0.7
		c-0.2,0.2-0.4,0.4-0.7,0.5C53,9.5,52.7,9.6,52.4,9.6z"/>
</g>
<g>
	<path class="st7" d="M58.4,5.1h3.1c0.5,0,0.9,0.1,1.3,0.2c0.4,0.1,0.7,0.3,0.9,0.6c0.2,0.2,0.4,0.5,0.6,0.8
		c0.1,0.3,0.2,0.7,0.2,1.1v0.3c0,0.4-0.1,0.7-0.2,1.1C64.2,9.4,64,9.7,63.8,10c-0.3,0.2-0.6,0.4-0.9,0.6c-0.4,0.1-0.8,0.2-1.3,0.2
		h-2.2v3.7h-0.9V5.1z M59.3,5.9v4h2c0.8,0,1.4-0.2,1.7-0.5c0.4-0.3,0.5-0.8,0.5-1.4V7.8c0-0.5-0.2-1-0.5-1.3
		c-0.3-0.3-0.9-0.5-1.6-0.5H59.3z"/>
	<path class="st7" d="M67.1,5.1v8.5h4.7v0.8h-5.6V5.1H67.1z"/>
	<path class="st7" d="M76.3,13.7c0.8,0,1.4-0.3,1.8-0.8s0.6-1.4,0.6-2.5V5.1h0.9v5.7c0,1.3-0.3,2.2-0.9,2.8
		c-0.6,0.6-1.4,0.9-2.4,0.9c-1,0-1.9-0.3-2.4-0.9C73.3,13,73,12.1,73,10.8V5.1h0.9v5.3c0,1.2,0.2,2,0.6,2.5S75.5,13.7,76.3,13.7z"/>
	<path class="st7" d="M84.5,13.7c0.4,0,0.7,0,1-0.1c0.3-0.1,0.5-0.2,0.7-0.4c0.2-0.2,0.4-0.3,0.5-0.5c0.1-0.2,0.2-0.4,0.2-0.6v-0.3
		c0-0.2,0-0.4-0.1-0.6c-0.1-0.2-0.2-0.3-0.4-0.5c-0.2-0.1-0.4-0.3-0.7-0.4c-0.3-0.1-0.7-0.2-1.2-0.3c-0.5-0.1-1-0.3-1.4-0.4
		c-0.4-0.2-0.7-0.3-0.9-0.5c-0.2-0.2-0.4-0.4-0.5-0.7c-0.1-0.2-0.1-0.5-0.1-0.8V7.3c0-0.4,0.1-0.7,0.2-1c0.2-0.3,0.4-0.5,0.6-0.7
		c0.3-0.2,0.6-0.4,1-0.5C83.8,5,84.2,5,84.6,5c0.6,0,1.2,0.1,1.6,0.2c0.4,0.2,0.8,0.3,1.1,0.6l-0.4,0.7c-0.3-0.2-0.6-0.4-1-0.5
		c-0.4-0.1-0.8-0.2-1.3-0.2c-0.3,0-0.6,0-0.8,0.1c-0.3,0.1-0.5,0.2-0.7,0.3c-0.2,0.1-0.3,0.3-0.5,0.5c-0.1,0.2-0.2,0.4-0.2,0.6v0.3
		c0,0.2,0,0.4,0.1,0.5c0.1,0.2,0.2,0.3,0.4,0.4c0.2,0.1,0.4,0.3,0.7,0.4c0.3,0.1,0.6,0.2,1.1,0.3c0.6,0.1,1.1,0.3,1.5,0.4
		c0.4,0.2,0.7,0.3,0.9,0.5c0.2,0.2,0.4,0.4,0.5,0.7c0.1,0.3,0.1,0.6,0.1,0.9v0.3c0,0.3-0.1,0.6-0.2,0.9c-0.1,0.3-0.4,0.5-0.6,0.8
		c-0.3,0.2-0.6,0.4-1,0.5c-0.4,0.1-0.8,0.2-1.3,0.2c-0.6,0-1.2-0.1-1.7-0.3c-0.5-0.2-1-0.4-1.4-0.8l0.5-0.8c0.5,0.3,0.9,0.6,1.4,0.7
		C83.7,13.6,84.1,13.7,84.5,13.7z"/>
</g>
</svg>
