<?xml version="1.0" encoding="utf-8"?>
<!-- Generator: Adobe Illustrator 23.0.2, SVG Export Plug-In . SVG Version: 6.00 Build 0)  -->
<svg version="1.1" id="레이어_1" xmlns="http://www.w3.org/2000/svg" xmlns:xlink="http://www.w3.org/1999/xlink" x="0px"
	 y="0px" viewBox="0 0 59.5 92.4" style="enable-background:new 0 0 59.5 92.4;" xml:space="preserve">
<style type="text/css">
	.st0{display:none;}
	.st1{display:inline;fill:#FFFFFF;}
	.st2{fill:#707070;}
</style>
<g id="Capa_1" class="st0">
	<rect class="st1" width="512" height="66.4"/>
	<rect y="189.6" class="st1" width="512" height="66.4"/>
	<rect y="379.3" class="st1" width="265.5" height="66.4"/>
</g>
<polygon class="st2" points="46.2,32.9 13.3,0 0,13.3 32.9,46.2 0,79.1 13.3,92.4 46.2,59.5 59.5,46.2 "/>
</svg>
