<?xml version="1.0" encoding="utf-8"?>
<!-- Generator: Adobe Illustrator 23.0.2, SVG Export Plug-In . SVG Version: 6.00 Build 0)  -->
<svg version="1.1" xmlns="http://www.w3.org/2000/svg" xmlns:xlink="http://www.w3.org/1999/xlink" x="0px" y="0px"
	 viewBox="0 0 453.8 458" style="enable-background:new 0 0 453.8 458;" xml:space="preserve">
<style type="text/css">
	.st0{display:none;}
	.st1{display:inline;fill:#FFFFFF;}
	.st2{fill:#FFFFFF;}
</style>
<g id="Capa_1" class="st0">
	<rect class="st1" width="512" height="66.4"/>
	<rect y="189.6" class="st1" width="512" height="66.4"/>
	<rect y="379.3" class="st1" width="265.5" height="66.4"/>
</g>
<g id="레이어_2">
	<g>
		<ellipse class="st2" cx="226.9" cy="118.7" rx="119.9" ry="118.7"/>
		<path class="st2" d="M453.8,458v-87.1c-61.2-51.4-140.4-82.5-226.9-82.5S61.2,319.4,0,370.9V458H453.8z"/>
	</g>
</g>
</svg>
